{
  "appName": "Insta Currency",
  "noInternet": "Can't connect .. check internet",
  "required": "This field is Required",
  "currencyExchange": "Currency Exchange",
  "arabic": "Arabic",
  "english": "English",
  "history": "History",
  "rates": "Rates",
  "convert": "Convert",
  "save": "Save",
  "from": "From",
  "to": "To",
  "changes": "Changes",
  "dates": "Dates"
}