<svg width="48px" height="48px" viewBox="0 0 48 48" fill="none" xmlns="http://www.w3.org/2000/svg">
    <rect width="48" height="48" fill="white" fill-opacity="0.01" />
    <path d="M5.81824 6.72729V14H13.091" stroke="black" stroke-width="4" stroke-linecap="round"
        stroke-linejoin="round" />
    <path
        d="M4 24C4 35.0457 12.9543 44 24 44V44C35.0457 44 44 35.0457 44 24C44 12.9543 35.0457 4 24 4C16.598 4 10.1351 8.02111 6.67677 13.9981"
        stroke="black" stroke-width="4" stroke-linecap="round" stroke-linejoin="round" />
    <path d="M24.005 12L24.0038 24.0088L32.4832 32.4882" stroke="black" stroke-width="4"
        stroke-linecap="round" stroke-linejoin="round" />
</svg>
